<?xml version="1.0" encoding="UTF-8" standalone="no"?>
<!-- Created with Inkscape (http://www.inkscape.org/) -->

<svg
   width="3000"
   height="500"
   viewBox="0 0 3000 500"
   version="1.1"
   id="svg5"
   inkscape:version="1.2.2 (b0a8486541, 2022-12-01)"
   sodipodi:docname="copycutfold-horizontal.svg"
   xmlns:inkscape="http://www.inkscape.org/namespaces/inkscape"
   xmlns:sodipodi="http://sodipodi.sourceforge.net/DTD/sodipodi-0.dtd"
   xmlns="http://www.w3.org/2000/svg"
   xmlns:svg="http://www.w3.org/2000/svg">
  <sodipodi:namedview
     id="namedview7"
     pagecolor="#ffffff"
     bordercolor="#999999"
     borderopacity="1"
     inkscape:showpageshadow="0"
     inkscape:pageopacity="0"
     inkscape:pagecheckerboard="0"
     inkscape:deskcolor="#d1d1d1"
     inkscape:document-units="px"
     showgrid="false"
     inkscape:zoom="0.1767767"
     inkscape:cx="1165.312"
     inkscape:cy="130.10765"
     inkscape:window-width="1440"
     inkscape:window-height="831"
     inkscape:window-x="0"
     inkscape:window-y="0"
     inkscape:window-maximized="1"
     inkscape:current-layer="layer1" />
  <defs
     id="defs2">
    <rect
       x="342.94128"
       y="565.42578"
       width="171.31873"
       height="187.89153"
       id="rect3762-6-6" />
    <rect
       x="342.94128"
       y="565.42578"
       width="171.31873"
       height="187.89153"
       id="rect3762-6-4-2" />
    <rect
       x="342.94128"
       y="565.42578"
       width="171.31873"
       height="187.89153"
       id="rect3762-6-5-9" />
    <marker
       style="overflow:visible"
       id="Arrow2"
       refX="0"
       refY="0"
       orient="auto-start-reverse"
       inkscape:stockid="Arrow2"
       markerWidth="7.6999998"
       markerHeight="5.5999999"
       viewBox="0 0 7.7 5.6"
       inkscape:isstock="true"
       inkscape:collect="always"
       preserveAspectRatio="xMidYMid">
      <path
         transform="scale(0.7)"
         d="M -2,-4 9,0 -2,4 c 2,-2.33 2,-5.66 0,-8 z"
         style="fill:context-stroke;fill-rule:evenodd;stroke:none"
         id="arrow2L" />
    </marker>
    <marker
       style="overflow:visible"
       id="Arrow2-6"
       refX="0"
       refY="0"
       orient="auto-start-reverse"
       inkscape:stockid="Arrow2"
       markerWidth="5.7140002"
       markerHeight="2.8570001"
       viewBox="0 0 7.7 5.6"
       inkscape:isstock="true"
       inkscape:collect="always"
       preserveAspectRatio="xMidYMid">
      <path
         transform="scale(0.7)"
         d="M -2,-4 9,0 -2,4 c 2,-2.33 2,-5.66 0,-8 z"
         style="fill:context-stroke;fill-rule:evenodd;stroke:none"
         id="arrow2L-1" />
    </marker>
    <marker
       style="overflow:visible"
       id="Arrow2-69"
       refX="0"
       refY="0"
       orient="auto-start-reverse"
       inkscape:stockid="Arrow2"
       markerWidth="5.9516668"
       markerHeight="3.5710001"
       viewBox="0 0 7.7 5.6"
       inkscape:isstock="true"
       inkscape:collect="always"
       preserveAspectRatio="xMidYMid">
      <path
         transform="scale(0.7)"
         d="M -2,-4 9,0 -2,4 c 2,-2.33 2,-5.66 0,-8 z"
         style="fill:context-stroke;fill-rule:evenodd;stroke:none"
         id="arrow2L-3" />
    </marker>
    <marker
       style="overflow:visible"
       id="Arrow2-7"
       refX="0"
       refY="0"
       orient="auto-start-reverse"
       inkscape:stockid="Arrow2"
       markerWidth="7.6999998"
       markerHeight="5.5999999"
       viewBox="0 0 7.7 5.6"
       inkscape:isstock="true"
       inkscape:collect="always"
       preserveAspectRatio="xMidYMid">
      <path
         transform="scale(0.7)"
         d="M -2,-4 9,0 -2,4 c 2,-2.33 2,-5.66 0,-8 z"
         style="fill:context-stroke;fill-rule:evenodd;stroke:none"
         id="arrow2L-4" />
    </marker>
    <marker
       style="overflow:visible"
       id="Arrow2-6-4"
       refX="0"
       refY="0"
       orient="auto-start-reverse"
       inkscape:stockid="Arrow2"
       markerWidth="5.7140002"
       markerHeight="2.8570001"
       viewBox="0 0 7.7 5.6"
       inkscape:isstock="true"
       inkscape:collect="always"
       preserveAspectRatio="xMidYMid">
      <path
         transform="scale(0.7)"
         d="M -2,-4 9,0 -2,4 c 2,-2.33 2,-5.66 0,-8 z"
         style="fill:context-stroke;fill-rule:evenodd;stroke:none"
         id="arrow2L-1-4" />
    </marker>
    <rect
       x="93.359375"
       y="572.51562"
       width="303.36719"
       height="361.25"
       id="rect2965-0" />
    <rect
       x="93.359375"
       y="572.51562"
       width="303.36719"
       height="361.25"
       id="rect2965-0-8" />
    <rect
       x="93.359375"
       y="572.51562"
       width="303.36719"
       height="361.25"
       id="rect2965-0-0" />
    <rect
       x="93.359375"
       y="572.51562"
       width="303.36719"
       height="361.25"
       id="rect2965-0-8-3" />
  </defs>
  <g
     inkscape:label="Calque 1"
     inkscape:groupmode="layer"
     id="layer1">
    <path
       style="fill:none;fill-rule:evenodd;stroke:#000000;stroke-width:10;stroke-linecap:butt;stroke-linejoin:miter;stroke-dasharray:none;stroke-opacity:1;marker-end:url(#Arrow2)"
       d="M 322.85803,256.06756 H 539.50926"
       id="path4194" />
    <g
       id="g2200"
       transform="translate(448.23087,-376.78744)">
      <path
         style="fill:none;fill-rule:evenodd;stroke:#000000;stroke-width:10;stroke-linecap:butt;stroke-linejoin:miter;stroke-dasharray:none;stroke-opacity:1;marker-end:url(#Arrow2-6)"
         d="m 595.09139,627.69948 c 72.19073,-1.95086 144.38146,-3.90172 216.57218,-5.85259"
         id="path4194-5"
         sodipodi:nodetypes="cc" />
      <path
         id="path22951"
         style="fill:#000000;fill-opacity:1;fill-rule:evenodd;stroke:#ffffff;stroke-width:20;stroke-linecap:butt;stroke-linejoin:miter;stroke-dasharray:none;stroke-opacity:1;paint-order:markers stroke fill"
         d="m 790.76386,654.53234 c -1.22666,-2.06395 -2.93897,-3.97526 -5.24431,-5.59835 -12.29517,-8.65656 -33.20896,-10.22263 -47.39994,-4.91144 -15.88069,-11.37231 -22.42095,-17.77469 -35.05479,-28.96714 0,0 -26.47359,-72.89535 -27.45895,-75.68379 -0.9854,-2.78843 -5.11586,-2.84653 -5.11586,-2.84653 l 12.87423,62.47412 -49.24622,-40.08092 c 0,0 -2.59712,2.82195 1.5807,7.38203 l 51.69213,56.19083 c 4.53927,15.21356 11.22423,30.2805 10.45452,46.27617 0,0 -13.63147,20.65033 -15.52845,25.77497 -1.89699,5.12466 -4.05287,17.22755 -0.44752,23.17918 3.60531,5.95166 13.93605,10.81854 17.64484,11.41205 3.70881,0.59349 18.46006,-1.25303 20.81035,-12.98302 2.35031,-11.72998 -0.4829,-17.21606 -5.00534,-30.75394 -4.52244,-13.53787 -14.1295,-42.40301 -12.58328,-55.78333 6.28188,3.90892 15.18618,9.65873 18.97656,13.18391 4.00241,3.756 37.75117,37.79502 45.50216,42.07483 7.75095,4.27984 15.77374,-1.49991 20.89885,-5.96193 4.16418,-3.62537 7.96595,-15.43384 2.65032,-24.3777 z m -5.4298,4.30402 c 2.18621,3.65047 2.39593,7.98573 -0.89192,12.67635 -7.51506,10.7215 -14.21685,6.92749 -20.60134,3.16727 -6.38449,-3.76023 -16.12734,-13.61002 -14.48987,-20.89127 1.63748,-7.28122 10.11566,-8.01116 20.98203,-4.9368 6.11231,1.72931 12.1903,5.29093 15.0011,9.98445 z m -72.97453,35.96042 c 1.86686,3.33286 3.07417,7.42773 3.02165,12.09471 -0.14002,12.4453 -9.53309,16.85882 -17.70615,14.68879 -8.17306,-2.16998 -12.10661,-9.37427 -11.3987,-17.23305 0.70789,-7.85881 7.63879,-19.69425 14.03237,-18.98603 3.99601,0.44264 8.93944,3.88082 12.05083,9.43558 z"
         sodipodi:nodetypes="ssccsccccccsssssccsssssssssssssss" />
    </g>
    <g
       id="g2200-4"
       transform="rotate(14.545689,2994.2322,7154.5513)"
       inkscape:transform-center-x="-12.830293"
       inkscape:transform-center-y="-636.20011">
      <path
         style="fill:none;fill-rule:evenodd;stroke:#000000;stroke-width:10;stroke-linecap:butt;stroke-linejoin:miter;stroke-dasharray:none;stroke-opacity:1;marker-end:url(#Arrow2-6-4)"
         d="M 598.4762,657.34594 C 667.70217,636.77722 736.92813,616.2085 806.15409,595.63977"
         id="path4194-5-7"
         sodipodi:nodetypes="cc" />
      <path
         style="fill:#000000;fill-opacity:1;fill-rule:evenodd;stroke:#ffffff;stroke-width:5;stroke-linecap:butt;stroke-linejoin:miter;stroke-dasharray:none;stroke-opacity:1;paint-order:stroke fill markers"
         d="m 664.053,584.77617 c -0.30779,4.16792 -0.82288,8.72355 -1.01669,10.83953 -0.19381,2.11593 -0.46358,2.18673 0.93442,3.11741 1.39798,0.93068 3.77641,3.01366 3.77641,3.01366 0,0 -0.73347,4.79258 -0.83546,5.77339 -0.10197,0.98081 -0.73415,1.14257 2.54874,2.09363 3.28284,0.95107 89.40277,24.51155 94.39199,25.84551 4.98922,1.334 4.67255,6.7885 4.67255,6.7885 0,0 -110.90842,-26.91109 -112.57752,-27.31275 -1.89616,-0.55586 -5.15963,5.90798 -3.76752,6.24148 1.25305,0.27017 124.80061,30.49712 126.20687,30.81867 1.40624,0.32165 1.73283,0.30976 1.95973,-0.71036 0.22694,-1.02011 4.00946,-12.01599 4.00946,-12.01599 0,0 5.70037,-4.07695 7.37849,-10.24511 -21.51023,-14.08645 -113.78809,-43.91274 -123.36582,-46.56066 -1.70392,-0.47107 -4.00784,-1.85482 -4.31565,2.31309 z"
         id="path32473"
         sodipodi:nodetypes="zzzczzzccczzcccz" />
    </g>
    <g
       id="g9778"
       transform="translate(1280.296,-483.12775)">
      <path
         style="fill:none;fill-rule:evenodd;stroke:#000000;stroke-width:10;stroke-linecap:butt;stroke-linejoin:miter;stroke-dasharray:none;stroke-opacity:1;marker-end:url(#Arrow2-7)"
         d="M 471.56502,758.67188 H 688.21625"
         id="path4194-52" />
      <g
         id="g4510"
         transform="matrix(0.36677125,0,0,0.36457651,436.05262,374.22645)"
         style="stroke-width:2.73469">
        <g
           id="g9838-5"
           transform="matrix(1,0,-0.57735027,1,-234.75393,762.57047)"
           style="fill:#ffffff;fill-opacity:1;stroke:#000000;stroke-width:13.6734;stroke-dasharray:none;stroke-opacity:1">
          <path
             id="rect1257-4"
             style="fill:#ffffff;fill-opacity:1;stroke:#000000;stroke-width:13.6734;stroke-linecap:round;stroke-linejoin:round;stroke-dasharray:none;stroke-opacity:1"
             d="m 938.53104,141.42791 v 212 l -68.37425,71.23197 H 716.11178 v -212 h 154.04501 z"
             sodipodi:nodetypes="ccccccc" />
        </g>
        <g
           id="g9838-5-6"
           transform="matrix(1,0,-0.57735027,1,-234.75393,762.57047)"
           style="fill:none;stroke:#000000;stroke-width:13.6734;stroke-dasharray:13.6734, 41.0203;stroke-dashoffset:0;stroke-opacity:1">
          <path
             id="rect1257-4-5"
             style="fill:none;stroke:#000000;stroke-width:13.6734;stroke-linecap:round;stroke-linejoin:round;stroke-dasharray:13.6734, 41.0203;stroke-dashoffset:0;stroke-opacity:1"
             d="m 870.15679,424.65988 v -212"
             sodipodi:nodetypes="cc" />
        </g>
        <path
           style="fill:none;stroke:#000000;stroke-width:13.6734;stroke-linecap:round;stroke-linejoin:round;stroke-dasharray:none;stroke-opacity:1;marker-start:url(#Arrow2-69);paint-order:markers stroke fill"
           id="path3311"
           sodipodi:type="arc"
           sodipodi:cx="499.55795"
           sodipodi:cy="890.65149"
           sodipodi:rx="77.782211"
           sodipodi:ry="75.725151"
           sodipodi:start="3.2174363"
           sodipodi:end="5.8779641"
           sodipodi:open="true"
           sodipodi:arc-type="arc"
           d="m 421.99935,884.91372 a 77.782211,75.725151 0 0 1 64.80657,-68.96278 77.782211,75.725151 0 0 1 84.23507,44.84802" />
      </g>
    </g>
    <g
       id="g5330-1"
       transform="translate(29.506844,-388.93244)">
      <rect
         style="fill:#ff7e29;fill-opacity:1;stroke:#943c00;stroke-width:10;stroke-linecap:round;stroke-opacity:1"
         id="rect1257-2-7"
         width="150"
         height="212"
         x="102.7272"
         y="569" />
      <rect
         style="fill:#ff7e29;fill-opacity:1;stroke:#943c00;stroke-width:10;stroke-linecap:square;stroke-dasharray:40, 30;stroke-dashoffset:0;stroke-opacity:1"
         id="rect1257-2-8-6"
         width="150"
         height="212"
         x="82.727196"
         y="549" />
      <rect
         style="fill:#ff7e29;fill-opacity:1;stroke:#943c00;stroke-width:10;stroke-linecap:square;stroke-dasharray:40, 30;stroke-dashoffset:0;stroke-opacity:1"
         id="rect1257-2-3-2"
         width="150"
         height="212"
         x="62.727192"
         y="529" />
      <g
         id="g3769-0-06-1"
         transform="translate(-258.31248,214.61157)">
        <rect
           style="fill:#ff7e29;fill-opacity:1;stroke:#943c00;stroke-width:10;stroke-linecap:round;stroke-opacity:1"
           id="rect1257-2-32-8"
           width="150"
           height="212"
           x="301.03967"
           y="294.38843" />
        <text
           xml:space="preserve"
           id="text3760-3-0-7"
           style="font-style:normal;font-variant:normal;font-weight:normal;font-stretch:normal;font-size:133.333px;line-height:125%;font-family:'Comic Neue';-inkscape-font-specification:'Comic Neue';letter-spacing:0px;word-spacing:0px;white-space:pre;shape-inside:url(#rect1257-2-32-8);display:inline;fill:#000000;fill-opacity:1;stroke:none;stroke-width:1px;stroke-linecap:butt;stroke-linejoin:miter;stroke-opacity:1"
           x="62.890465"
           y="0"
           transform="translate(36.784562,33.520605)"><tspan
             x="301.03906"
             y="415.40286"
             id="tspan6969"><tspan
               style="font-family:'Arial black';-inkscape-font-specification:'Arial black, '"
               id="tspan6967">1</tspan></tspan></text>
      </g>
    </g>
    <g
       id="g9769"
       transform="translate(-23.142713,-18.404168)">
      <g
         id="g1173-5"
         transform="matrix(0.54130268,0,0,0.538076,369.56282,79.293246)"
         style="stroke-width:1.85293">
        <g
           id="g902-4"
           transform="translate(-32.120531,-29.609495)"
           style="stroke-width:1.85293">
          <g
             id="g9838-7"
             transform="translate(-256.95931,-18.232602)"
             style="stroke-width:1.85293">
            <rect
               style="fill:#ff7e29;fill-opacity:1;stroke:#943c00;stroke-width:18.5293;stroke-linecap:round;stroke-opacity:1"
               id="rect1257-44"
               width="150"
               height="212"
               x="874.20184"
               y="212.65988" />
            <text
               xml:space="preserve"
               id="text3760-3"
               style="font-style:normal;font-variant:normal;font-weight:normal;font-stretch:normal;font-size:133.333px;line-height:125%;font-family:'Comic Neue';-inkscape-font-specification:'Comic Neue';letter-spacing:0px;word-spacing:0px;white-space:pre;shape-inside:url(#rect1257-44);display:inline;fill:#000000;fill-opacity:1;stroke:none;stroke-width:1.85293px;stroke-linecap:butt;stroke-linejoin:miter;stroke-opacity:1"
               x="104.81744"
               y="0"
               transform="translate(36.78456,33.52061)"><tspan
                 x="874.20117"
                 y="333.67434"
                 id="tspan6973"><tspan
                   style="font-family:'Arial Black';-inkscape-font-specification:'Arial Black, ';text-align:justify"
                   id="tspan6971">6</tspan></tspan></text>
          </g>
          <g
             id="g9838-3-07"
             transform="translate(-97.957315,-18.232602)"
             style="stroke-width:1.85293">
            <rect
               style="fill:#ff7e29;fill-opacity:1;stroke:#943c00;stroke-width:18.5293;stroke-linecap:round;stroke-opacity:1"
               id="rect1257-6-8"
               width="150"
               height="212"
               x="874.20184"
               y="212.65988" />
            <text
               xml:space="preserve"
               id="text3760-7-6"
               style="font-style:normal;font-variant:normal;font-weight:normal;font-stretch:normal;font-size:133.333px;line-height:125%;font-family:'Comic Neue';-inkscape-font-specification:'Comic Neue';letter-spacing:0px;word-spacing:0px;white-space:pre;shape-inside:url(#rect1257-6-8);display:inline;fill:#000000;fill-opacity:1;stroke:none;stroke-width:1.85293px;stroke-linecap:butt;stroke-linejoin:miter;stroke-opacity:1"
               x="104.81744"
               y="0"
               transform="translate(36.78456,33.52061)"><tspan
                 x="874.20117"
                 y="333.67434"
                 id="tspan6977"><tspan
                   style="font-family:'Arial Black';-inkscape-font-specification:'Arial Black, ';text-align:justify"
                   id="tspan6975">3</tspan></tspan></text>
          </g>
        </g>
        <g
           id="g902-5-8"
           transform="translate(285.88346,191.3925)"
           style="stroke-width:1.85293">
          <g
             id="g9838-35-8"
             transform="translate(-256.95931,-18.232602)"
             style="stroke-width:1.85293">
            <rect
               style="fill:#ff7e29;fill-opacity:1;stroke:#943c00;stroke-width:18.5293;stroke-linecap:round;stroke-opacity:1"
               id="rect1257-62-4"
               width="150"
               height="212"
               x="874.20184"
               y="212.65988" />
            <text
               xml:space="preserve"
               id="text3760-9-3"
               style="font-style:normal;font-variant:normal;font-weight:normal;font-stretch:normal;font-size:133.333px;line-height:125%;font-family:'Comic Neue';-inkscape-font-specification:'Comic Neue';letter-spacing:0px;word-spacing:0px;white-space:pre;shape-inside:url(#rect1257-62-4);display:inline;fill:#000000;fill-opacity:1;stroke:none;stroke-width:1.85293px;stroke-linecap:butt;stroke-linejoin:miter;stroke-opacity:1"
               x="104.81744"
               y="0"
               transform="translate(36.78456,33.52061)"><tspan
                 x="874.20117"
                 y="333.67434"
                 id="tspan6981"><tspan
                   style="font-family:'Arial Black';-inkscape-font-specification:'Arial Black, ';text-align:justify"
                   id="tspan6979">6</tspan></tspan></text>
          </g>
          <g
             id="g9838-3-1-1"
             transform="translate(-97.957315,-18.232602)"
             style="stroke-width:1.85293">
            <rect
               style="fill:#ff7e29;fill-opacity:1;stroke:#943c00;stroke-width:18.5293;stroke-linecap:round;stroke-opacity:1"
               id="rect1257-6-2-4"
               width="150"
               height="212"
               x="874.20184"
               y="212.65988" />
            <text
               xml:space="preserve"
               id="text3760-7-7-92"
               style="font-style:normal;font-variant:normal;font-weight:normal;font-stretch:normal;font-size:133.333px;line-height:125%;font-family:'Comic Neue';-inkscape-font-specification:'Comic Neue';letter-spacing:0px;word-spacing:0px;white-space:pre;shape-inside:url(#rect1257-6-2-4);display:inline;fill:#000000;fill-opacity:1;stroke:none;stroke-width:1.85293px;stroke-linecap:butt;stroke-linejoin:miter;stroke-opacity:1"
               x="104.81744"
               y="0"
               transform="translate(36.78456,33.52061)"><tspan
                 x="874.20117"
                 y="333.67434"
                 id="tspan6985"><tspan
                   style="font-family:'Arial Black';-inkscape-font-specification:'Arial Black, ';text-align:justify"
                   id="tspan6983">3</tspan></tspan></text>
          </g>
        </g>
        <g
           id="g902-0-0"
           transform="translate(285.88346,-29.609495)"
           style="stroke-width:1.85293">
          <g
             id="g9838-9-6"
             transform="translate(-256.95931,-18.232602)"
             style="stroke-width:1.85293">
            <rect
               style="fill:#ff7e29;fill-opacity:1;stroke:#943c00;stroke-width:18.5293;stroke-linecap:round;stroke-opacity:1"
               id="rect1257-3-89"
               width="150"
               height="212"
               x="874.20184"
               y="212.65988" />
            <text
               xml:space="preserve"
               id="text3760-6-2"
               style="font-style:normal;font-variant:normal;font-weight:normal;font-stretch:normal;font-size:133.333px;line-height:125%;font-family:'Comic Neue';-inkscape-font-specification:'Comic Neue';letter-spacing:0px;word-spacing:0px;white-space:pre;shape-inside:url(#rect1257-3-89);display:inline;fill:#000000;fill-opacity:1;stroke:none;stroke-width:1.85293px;stroke-linecap:butt;stroke-linejoin:miter;stroke-opacity:1"
               x="104.81744"
               y="0"
               transform="translate(36.78456,33.52061)"><tspan
                 x="874.20117"
                 y="333.67434"
                 id="tspan6989"><tspan
                   style="font-family:'Arial Black';-inkscape-font-specification:'Arial Black, ';text-align:justify"
                   id="tspan6987">6</tspan></tspan></text>
          </g>
          <g
             id="g9838-3-0-6"
             transform="translate(-97.957315,-18.232602)"
             style="stroke-width:1.85293">
            <rect
               style="fill:#ff7e29;fill-opacity:1;stroke:#943c00;stroke-width:18.5293;stroke-linecap:round;stroke-opacity:1"
               id="rect1257-6-6-6"
               width="150"
               height="212"
               x="874.20184"
               y="212.65988" />
            <text
               xml:space="preserve"
               id="text3760-7-2-4"
               style="font-style:normal;font-variant:normal;font-weight:normal;font-stretch:normal;font-size:133.333px;line-height:125%;font-family:'Comic Neue';-inkscape-font-specification:'Comic Neue';letter-spacing:0px;word-spacing:0px;white-space:pre;shape-inside:url(#rect1257-6-6-6);display:inline;fill:#000000;fill-opacity:1;stroke:none;stroke-width:1.85293px;stroke-linecap:butt;stroke-linejoin:miter;stroke-opacity:1"
               x="104.81744"
               y="0"
               transform="translate(36.78456,33.52061)"><tspan
                 x="874.20117"
                 y="333.67434"
                 id="tspan6993"><tspan
                   style="font-family:'Arial Black';-inkscape-font-specification:'Arial Black, ';text-align:justify"
                   id="tspan6991">3</tspan></tspan></text>
          </g>
        </g>
        <g
           id="g902-6-9"
           transform="translate(-32.120531,191.3925)"
           style="stroke-width:1.85293">
          <g
             id="g9838-1-5"
             transform="translate(-256.95931,-18.232602)"
             style="stroke-width:1.85293">
            <rect
               style="fill:#ff7e29;fill-opacity:1;stroke:#943c00;stroke-width:18.5293;stroke-linecap:round;stroke-opacity:1"
               id="rect1257-8-04"
               width="150"
               height="212"
               x="874.20184"
               y="212.65988" />
            <text
               xml:space="preserve"
               id="text3760-79-8"
               style="font-style:normal;font-variant:normal;font-weight:normal;font-stretch:normal;font-size:133.333px;line-height:125%;font-family:'Comic Neue';-inkscape-font-specification:'Comic Neue';letter-spacing:0px;word-spacing:0px;white-space:pre;shape-inside:url(#rect1257-8-04);display:inline;fill:#000000;fill-opacity:1;stroke:none;stroke-width:1.85293px;stroke-linecap:butt;stroke-linejoin:miter;stroke-opacity:1"
               x="104.81744"
               y="0"
               transform="translate(36.78456,33.52061)"><tspan
                 x="874.20117"
                 y="333.67434"
                 id="tspan6997"><tspan
                   style="font-family:'Arial Black';-inkscape-font-specification:'Arial Black, ';text-align:justify"
                   id="tspan6995">6</tspan></tspan></text>
          </g>
          <g
             id="g9838-3-2-7"
             transform="translate(-97.957315,-18.232602)"
             style="stroke-width:1.85293">
            <rect
               style="fill:#ff7e29;fill-opacity:1;stroke:#943c00;stroke-width:18.5293;stroke-linecap:round;stroke-opacity:1"
               id="rect1257-6-0-1"
               width="150"
               height="212"
               x="874.20184"
               y="212.65988" />
            <text
               xml:space="preserve"
               id="text3760-7-23-7"
               style="font-style:normal;font-variant:normal;font-weight:normal;font-stretch:normal;font-size:133.333px;line-height:125%;font-family:'Comic Neue';-inkscape-font-specification:'Comic Neue';letter-spacing:0px;word-spacing:0px;white-space:pre;shape-inside:url(#rect1257-6-0-1);display:inline;fill:#000000;fill-opacity:1;stroke:none;stroke-width:1.85293px;stroke-linecap:butt;stroke-linejoin:miter;stroke-opacity:1"
               x="104.81744"
               y="0"
               transform="translate(36.78456,33.52061)"><tspan
                 x="874.20117"
                 y="333.67434"
                 id="tspan7001"><tspan
                   style="font-family:'Arial Black';-inkscape-font-specification:'Arial Black, ';text-align:justify"
                   id="tspan6999">3</tspan></tspan></text>
          </g>
        </g>
      </g>
      <g
         id="g1173"
         transform="matrix(0.54130268,0,0,0.538076,349.56282,59.293246)"
         style="stroke-width:1.85293">
        <g
           id="g902"
           transform="translate(-32.120531,-29.609495)"
           style="stroke-width:1.85293">
          <g
             id="g9838"
             transform="translate(-256.95931,-18.232602)"
             style="stroke-width:1.85293">
            <rect
               style="fill:#ff7e29;fill-opacity:1;stroke:#943c00;stroke-width:18.5293;stroke-linecap:round;stroke-opacity:1"
               id="rect1257"
               width="150"
               height="212"
               x="874.20184"
               y="212.65988" />
            <text
               xml:space="preserve"
               id="text3760"
               style="font-style:normal;font-variant:normal;font-weight:normal;font-stretch:normal;font-size:133.333px;line-height:125%;font-family:'Comic Neue';-inkscape-font-specification:'Comic Neue';letter-spacing:0px;word-spacing:0px;white-space:pre;shape-inside:url(#rect1257);display:inline;fill:#000000;fill-opacity:1;stroke:none;stroke-width:1.85293px;stroke-linecap:butt;stroke-linejoin:miter;stroke-opacity:1"
               x="104.81744"
               y="0"
               transform="translate(36.78456,33.52061)"><tspan
                 x="874.20117"
                 y="333.67434"
                 id="tspan7005"><tspan
                   style="font-family:'Arial Black';-inkscape-font-specification:'Arial Black, ';text-align:justify"
                   id="tspan7003">4</tspan></tspan></text>
          </g>
          <g
             id="g9838-3"
             transform="translate(-97.957315,-18.232602)"
             style="stroke-width:1.85293">
            <rect
               style="fill:#ff7e29;fill-opacity:1;stroke:#943c00;stroke-width:18.5293;stroke-linecap:round;stroke-opacity:1"
               id="rect1257-6"
               width="150"
               height="212"
               x="874.20184"
               y="212.65988" />
            <text
               xml:space="preserve"
               id="text3760-7"
               style="font-style:normal;font-variant:normal;font-weight:normal;font-stretch:normal;font-size:133.333px;line-height:125%;font-family:'Comic Neue';-inkscape-font-specification:'Comic Neue';letter-spacing:0px;word-spacing:0px;white-space:pre;shape-inside:url(#rect1257-6);display:inline;fill:#000000;fill-opacity:1;stroke:none;stroke-width:1.85293px;stroke-linecap:butt;stroke-linejoin:miter;stroke-opacity:1"
               x="104.81744"
               y="0"
               transform="translate(36.78456,33.52061)"><tspan
                 x="874.20117"
                 y="333.67434"
                 id="tspan7009"><tspan
                   style="font-family:'Arial Black';-inkscape-font-specification:'Arial Black, ';text-align:justify"
                   id="tspan7007">5</tspan></tspan></text>
          </g>
        </g>
        <g
           id="g902-5"
           transform="translate(285.88346,191.3925)"
           style="stroke-width:1.85293">
          <g
             id="g9838-35"
             transform="translate(-256.95931,-18.232602)"
             style="stroke-width:1.85293">
            <rect
               style="fill:#ff7e29;fill-opacity:1;stroke:#943c00;stroke-width:18.5293;stroke-linecap:round;stroke-opacity:1"
               id="rect1257-62"
               width="150"
               height="212"
               x="874.20184"
               y="212.65988" />
            <text
               xml:space="preserve"
               id="text3760-9"
               style="font-style:normal;font-variant:normal;font-weight:normal;font-stretch:normal;font-size:133.333px;line-height:125%;font-family:'Comic Neue';-inkscape-font-specification:'Comic Neue';letter-spacing:0px;word-spacing:0px;white-space:pre;shape-inside:url(#rect1257-62);display:inline;fill:#000000;fill-opacity:1;stroke:none;stroke-width:1.85293px;stroke-linecap:butt;stroke-linejoin:miter;stroke-opacity:1"
               x="104.81744"
               y="0"
               transform="translate(36.78456,33.52061)"><tspan
                 x="874.20117"
                 y="333.67434"
                 id="tspan7013"><tspan
                   style="font-family:'Arial Black';-inkscape-font-specification:'Arial Black, ';text-align:justify"
                   id="tspan7011">4</tspan></tspan></text>
          </g>
          <g
             id="g9838-3-1"
             transform="translate(-97.957315,-18.232602)"
             style="stroke-width:1.85293">
            <rect
               style="fill:#ff7e29;fill-opacity:1;stroke:#943c00;stroke-width:18.5293;stroke-linecap:round;stroke-opacity:1"
               id="rect1257-6-2"
               width="150"
               height="212"
               x="874.20184"
               y="212.65988" />
            <text
               xml:space="preserve"
               id="text3760-7-7"
               style="font-style:normal;font-variant:normal;font-weight:normal;font-stretch:normal;font-size:133.333px;line-height:125%;font-family:'Comic Neue';-inkscape-font-specification:'Comic Neue';letter-spacing:0px;word-spacing:0px;white-space:pre;shape-inside:url(#rect1257-6-2);display:inline;fill:#000000;fill-opacity:1;stroke:none;stroke-width:1.85293px;stroke-linecap:butt;stroke-linejoin:miter;stroke-opacity:1"
               x="104.81744"
               y="0"
               transform="translate(36.78456,33.52061)"><tspan
                 x="874.20117"
                 y="333.67434"
                 id="tspan7017"><tspan
                   style="font-family:'Arial Black';-inkscape-font-specification:'Arial Black, ';text-align:justify"
                   id="tspan7015">5</tspan></tspan></text>
          </g>
        </g>
        <g
           id="g902-0"
           transform="translate(285.88346,-29.609495)"
           style="stroke-width:1.85293">
          <g
             id="g9838-9"
             transform="translate(-256.95931,-18.232602)"
             style="stroke-width:1.85293">
            <rect
               style="fill:#ff7e29;fill-opacity:1;stroke:#943c00;stroke-width:18.5293;stroke-linecap:round;stroke-opacity:1"
               id="rect1257-3"
               width="150"
               height="212"
               x="874.20184"
               y="212.65988" />
            <text
               xml:space="preserve"
               id="text3760-6"
               style="font-style:normal;font-variant:normal;font-weight:normal;font-stretch:normal;font-size:133.333px;line-height:125%;font-family:'Comic Neue';-inkscape-font-specification:'Comic Neue';letter-spacing:0px;word-spacing:0px;white-space:pre;shape-inside:url(#rect1257-3);display:inline;fill:#000000;fill-opacity:1;stroke:none;stroke-width:1.85293px;stroke-linecap:butt;stroke-linejoin:miter;stroke-opacity:1"
               x="104.81744"
               y="0"
               transform="translate(36.78456,33.52061)"><tspan
                 x="874.20117"
                 y="333.67434"
                 id="tspan7021"><tspan
                   style="font-family:'Arial Black';-inkscape-font-specification:'Arial Black, ';text-align:justify"
                   id="tspan7019">4</tspan></tspan></text>
          </g>
          <g
             id="g9838-3-0"
             transform="translate(-97.957315,-18.232602)"
             style="stroke-width:1.85293">
            <rect
               style="fill:#ff7e29;fill-opacity:1;stroke:#943c00;stroke-width:18.5293;stroke-linecap:round;stroke-opacity:1"
               id="rect1257-6-6"
               width="150"
               height="212"
               x="874.20184"
               y="212.65988" />
            <text
               xml:space="preserve"
               id="text3760-7-2"
               style="font-style:normal;font-variant:normal;font-weight:normal;font-stretch:normal;font-size:133.333px;line-height:125%;font-family:'Comic Neue';-inkscape-font-specification:'Comic Neue';letter-spacing:0px;word-spacing:0px;white-space:pre;shape-inside:url(#rect1257-6-6);display:inline;fill:#000000;fill-opacity:1;stroke:none;stroke-width:1.85293px;stroke-linecap:butt;stroke-linejoin:miter;stroke-opacity:1"
               x="104.81744"
               y="0"
               transform="translate(36.78456,33.52061)"><tspan
                 x="874.20117"
                 y="333.67434"
                 id="tspan7025"><tspan
                   style="font-family:'Arial Black';-inkscape-font-specification:'Arial Black, ';text-align:justify"
                   id="tspan7023">5</tspan></tspan></text>
          </g>
        </g>
        <g
           id="g902-6"
           transform="translate(-32.120531,191.3925)"
           style="stroke-width:1.85293">
          <g
             id="g9838-1"
             transform="translate(-256.95931,-18.232602)"
             style="stroke-width:1.85293">
            <rect
               style="fill:#ff7e29;fill-opacity:1;stroke:#943c00;stroke-width:18.5293;stroke-linecap:round;stroke-opacity:1"
               id="rect1257-8"
               width="150"
               height="212"
               x="874.20184"
               y="212.65988" />
            <text
               xml:space="preserve"
               id="text3760-79"
               style="font-style:normal;font-variant:normal;font-weight:normal;font-stretch:normal;font-size:133.333px;line-height:125%;font-family:'Comic Neue';-inkscape-font-specification:'Comic Neue';letter-spacing:0px;word-spacing:0px;white-space:pre;shape-inside:url(#rect1257-8);display:inline;fill:#000000;fill-opacity:1;stroke:none;stroke-width:1.85293px;stroke-linecap:butt;stroke-linejoin:miter;stroke-opacity:1"
               x="104.81744"
               y="0"
               transform="translate(36.78456,33.52061)"><tspan
                 x="874.20117"
                 y="333.67434"
                 id="tspan7029"><tspan
                   style="font-family:'Arial Black';-inkscape-font-specification:'Arial Black, ';text-align:justify"
                   id="tspan7027">4</tspan></tspan></text>
          </g>
          <g
             id="g9838-3-2"
             transform="translate(-97.957315,-18.232602)"
             style="stroke-width:1.85293">
            <rect
               style="fill:#ff7e29;fill-opacity:1;stroke:#943c00;stroke-width:18.5293;stroke-linecap:round;stroke-opacity:1"
               id="rect1257-6-0"
               width="150"
               height="212"
               x="874.20184"
               y="212.65988" />
            <text
               xml:space="preserve"
               id="text3760-7-23"
               style="font-style:normal;font-variant:normal;font-weight:normal;font-stretch:normal;font-size:133.333px;line-height:125%;font-family:'Comic Neue';-inkscape-font-specification:'Comic Neue';letter-spacing:0px;word-spacing:0px;white-space:pre;shape-inside:url(#rect1257-6-0);display:inline;fill:#000000;fill-opacity:1;stroke:none;stroke-width:1.85293px;stroke-linecap:butt;stroke-linejoin:miter;stroke-opacity:1"
               x="104.81744"
               y="0"
               transform="translate(36.78456,33.52061)"><tspan
                 x="874.20117"
                 y="333.67434"
                 id="tspan7033"><tspan
                   style="font-family:'Arial Black';-inkscape-font-specification:'Arial Black, ';text-align:justify"
                   id="tspan7031">5</tspan></tspan></text>
          </g>
        </g>
      </g>
    </g>
    <g
       id="g9677"
       transform="translate(1268.6925,-521.32306)">
      <g
         id="g1915-2"
         transform="translate(-5.703125,89.078125)">
        <g
           id="g902-59-7"
           transform="matrix(0.54130268,0,0,0.538076,-250.44151,460.63764)"
           style="stroke-width:1.85293">
          <g
             id="g9838-2-2"
             transform="translate(-256.95931,-18.232602)"
             style="stroke-width:1.85293">
            <rect
               style="fill:#ff7e29;fill-opacity:1;stroke:#943c00;stroke-width:18.5293;stroke-linecap:round;stroke-opacity:1"
               id="rect1257-2-2"
               width="150"
               height="212"
               x="874.20184"
               y="212.65988" />
            <text
               xml:space="preserve"
               id="text3760-8-6"
               style="font-style:normal;font-variant:normal;font-weight:normal;font-stretch:normal;font-size:133.333px;line-height:125%;font-family:'Comic Neue';-inkscape-font-specification:'Comic Neue';letter-spacing:0px;word-spacing:0px;white-space:pre;shape-inside:url(#rect1257-2-2);display:inline;fill:#000000;fill-opacity:1;stroke:none;stroke-width:1.85293px;stroke-linecap:butt;stroke-linejoin:miter;stroke-opacity:1"
               x="104.81744"
               y="0"
               transform="translate(36.78456,33.52061)"><tspan
                 x="874.20117"
                 y="333.67434"
                 id="tspan7037"><tspan
                   style="font-family:'Arial Black';-inkscape-font-specification:'Arial Black, ';text-align:justify"
                   id="tspan7035">6</tspan></tspan></text>
          </g>
          <g
             id="g9838-3-9-1"
             transform="translate(-97.957315,-18.232602)"
             style="stroke-width:1.85293">
            <rect
               style="fill:#ff7e29;fill-opacity:1;stroke:#943c00;stroke-width:18.5293;stroke-linecap:round;stroke-opacity:1"
               id="rect1257-6-7-0"
               width="150"
               height="212"
               x="874.20184"
               y="212.65988" />
            <text
               xml:space="preserve"
               id="text3760-7-3-6"
               style="font-style:normal;font-variant:normal;font-weight:normal;font-stretch:normal;font-size:133.333px;line-height:125%;font-family:'Comic Neue';-inkscape-font-specification:'Comic Neue';letter-spacing:0px;word-spacing:0px;white-space:pre;shape-inside:url(#rect1257-6-7-0);display:inline;fill:#000000;fill-opacity:1;stroke:none;stroke-width:1.85293px;stroke-linecap:butt;stroke-linejoin:miter;stroke-opacity:1"
               x="104.81744"
               y="0"
               transform="translate(36.78456,33.52061)"><tspan
                 x="874.20117"
                 y="333.67434"
                 id="tspan7041"><tspan
                   style="font-family:'Arial Black';-inkscape-font-specification:'Arial Black, ';text-align:justify"
                   id="tspan7039">3</tspan></tspan></text>
          </g>
        </g>
        <g
           id="g902-5-6-1"
           transform="matrix(0.54130268,0,0,0.538076,-53.145941,604.68193)"
           style="stroke-width:1.85293">
          <g
             id="g9838-35-1-5"
             transform="translate(-256.95931,-18.232602)"
             style="stroke-width:1.85293">
            <rect
               style="fill:#ff7e29;fill-opacity:1;stroke:#943c00;stroke-width:18.5293;stroke-linecap:round;stroke-opacity:1"
               id="rect1257-62-2-9"
               width="150"
               height="212"
               x="874.20184"
               y="212.65988" />
            <text
               xml:space="preserve"
               id="text3760-9-9-4"
               style="font-style:normal;font-variant:normal;font-weight:normal;font-stretch:normal;font-size:133.333px;line-height:125%;font-family:'Comic Neue';-inkscape-font-specification:'Comic Neue';letter-spacing:0px;word-spacing:0px;white-space:pre;shape-inside:url(#rect1257-62-2-9);display:inline;fill:#000000;fill-opacity:1;stroke:none;stroke-width:1.85293px;stroke-linecap:butt;stroke-linejoin:miter;stroke-opacity:1"
               x="104.81744"
               y="0"
               transform="translate(36.78456,33.52061)"><tspan
                 x="874.20117"
                 y="333.67434"
                 id="tspan7045"><tspan
                   style="font-family:'Arial Black';-inkscape-font-specification:'Arial Black, ';text-align:justify"
                   id="tspan7043">6</tspan></tspan></text>
          </g>
          <g
             id="g9838-3-1-3-9"
             transform="translate(-97.957315,-18.232602)"
             style="stroke-width:1.85293">
            <rect
               style="fill:#ff7e29;fill-opacity:1;stroke:#943c00;stroke-width:18.5293;stroke-linecap:round;stroke-opacity:1"
               id="rect1257-6-2-1-0"
               width="150"
               height="212"
               x="874.20184"
               y="212.65988" />
            <text
               xml:space="preserve"
               id="text3760-7-7-9-9"
               style="font-style:normal;font-variant:normal;font-weight:normal;font-stretch:normal;font-size:133.333px;line-height:125%;font-family:'Comic Neue';-inkscape-font-specification:'Comic Neue';letter-spacing:0px;word-spacing:0px;white-space:pre;shape-inside:url(#rect1257-6-2-1-0);display:inline;fill:#000000;fill-opacity:1;stroke:none;stroke-width:1.85293px;stroke-linecap:butt;stroke-linejoin:miter;stroke-opacity:1"
               x="104.81744"
               y="0"
               transform="translate(36.78456,33.52061)"><tspan
                 x="874.20117"
                 y="333.67434"
                 id="tspan7049"><tspan
                   style="font-family:'Arial Black';-inkscape-font-specification:'Arial Black, ';text-align:justify"
                   id="tspan7047">3</tspan></tspan></text>
          </g>
        </g>
        <g
           id="g902-0-4-1"
           transform="matrix(0.54130268,0,0,0.538076,-53.145941,460.63764)"
           style="stroke-width:1.85293">
          <g
             id="g9838-9-7-7"
             transform="translate(-256.95931,-18.232602)"
             style="stroke-width:1.85293">
            <rect
               style="fill:#ff7e29;fill-opacity:1;stroke:#943c00;stroke-width:18.5293;stroke-linecap:round;stroke-opacity:1"
               id="rect1257-3-8-7"
               width="150"
               height="212"
               x="874.20184"
               y="212.65988" />
            <text
               xml:space="preserve"
               id="text3760-6-4-1"
               style="font-style:normal;font-variant:normal;font-weight:normal;font-stretch:normal;font-size:133.333px;line-height:125%;font-family:'Comic Neue';-inkscape-font-specification:'Comic Neue';letter-spacing:0px;word-spacing:0px;white-space:pre;shape-inside:url(#rect1257-3-8-7);display:inline;fill:#000000;fill-opacity:1;stroke:none;stroke-width:1.85293px;stroke-linecap:butt;stroke-linejoin:miter;stroke-opacity:1"
               x="104.81744"
               y="0"
               transform="translate(36.78456,33.52061)"><tspan
                 x="874.20117"
                 y="333.67434"
                 id="tspan7053"><tspan
                   style="font-family:'Arial Black';-inkscape-font-specification:'Arial Black, ';text-align:justify"
                   id="tspan7051">6</tspan></tspan></text>
          </g>
          <g
             id="g9838-3-0-5-1"
             transform="translate(-97.957315,-18.232602)"
             style="stroke-width:1.85293">
            <rect
               style="fill:#ff7e29;fill-opacity:1;stroke:#943c00;stroke-width:18.5293;stroke-linecap:round;stroke-opacity:1"
               id="rect1257-6-6-0-5"
               width="150"
               height="212"
               x="874.20184"
               y="212.65988" />
            <text
               xml:space="preserve"
               id="text3760-7-2-3-9"
               style="font-style:normal;font-variant:normal;font-weight:normal;font-stretch:normal;font-size:133.333px;line-height:125%;font-family:'Comic Neue';-inkscape-font-specification:'Comic Neue';letter-spacing:0px;word-spacing:0px;white-space:pre;shape-inside:url(#rect1257-6-6-0-5);display:inline;fill:#000000;fill-opacity:1;stroke:none;stroke-width:1.85293px;stroke-linecap:butt;stroke-linejoin:miter;stroke-opacity:1"
               x="104.81744"
               y="0"
               transform="translate(36.78456,33.52061)"><tspan
                 x="874.20117"
                 y="333.67434"
                 id="tspan7057"><tspan
                   style="font-family:'Arial Black';-inkscape-font-specification:'Arial Black, ';text-align:justify"
                   id="tspan7055">3</tspan></tspan></text>
          </g>
        </g>
        <g
           id="g902-6-6-7"
           transform="matrix(0.54130268,0,0,0.538076,-250.44151,604.68193)"
           style="stroke-width:1.85293">
          <g
             id="g9838-1-1-7"
             transform="translate(-256.95931,-18.232602)"
             style="stroke-width:1.85293">
            <rect
               style="fill:#ff7e29;fill-opacity:1;stroke:#943c00;stroke-width:18.5293;stroke-linecap:round;stroke-opacity:1"
               id="rect1257-8-0-6"
               width="150"
               height="212"
               x="874.20184"
               y="212.65988" />
            <text
               xml:space="preserve"
               id="text3760-79-6-7"
               style="font-style:normal;font-variant:normal;font-weight:normal;font-stretch:normal;font-size:133.333px;line-height:125%;font-family:'Comic Neue';-inkscape-font-specification:'Comic Neue';letter-spacing:0px;word-spacing:0px;white-space:pre;shape-inside:url(#rect1257-8-0-6);display:inline;fill:#000000;fill-opacity:1;stroke:none;stroke-width:1.85293px;stroke-linecap:butt;stroke-linejoin:miter;stroke-opacity:1"
               x="104.81744"
               y="0"
               transform="translate(36.78456,33.52061)"><tspan
                 x="874.20117"
                 y="333.67434"
                 id="tspan7061"><tspan
                   style="font-family:'Arial Black';-inkscape-font-specification:'Arial Black, ';text-align:justify"
                   id="tspan7059">6</tspan></tspan></text>
          </g>
          <g
             id="g9838-3-2-3-3"
             transform="translate(-97.957315,-18.232602)"
             style="stroke-width:1.85293">
            <rect
               style="fill:#ff7e29;fill-opacity:1;stroke:#943c00;stroke-width:18.5293;stroke-linecap:round;stroke-opacity:1"
               id="rect1257-6-0-2-6"
               width="150"
               height="212"
               x="874.20184"
               y="212.65988" />
            <text
               xml:space="preserve"
               id="text3760-7-23-0-5"
               style="font-style:normal;font-variant:normal;font-weight:normal;font-stretch:normal;font-size:133.333px;line-height:125%;font-family:'Comic Neue';-inkscape-font-specification:'Comic Neue';letter-spacing:0px;word-spacing:0px;white-space:pre;shape-inside:url(#rect1257-6-0-2-6);display:inline;fill:#000000;fill-opacity:1;stroke:none;stroke-width:1.85293px;stroke-linecap:butt;stroke-linejoin:miter;stroke-opacity:1"
               x="104.81744"
               y="0"
               transform="translate(36.78456,33.52061)"><tspan
                 x="874.20117"
                 y="333.67434"
                 id="tspan7065"><tspan
                   style="font-family:'Arial Black';-inkscape-font-specification:'Arial Black, ';text-align:justify"
                   id="tspan7063">3</tspan></tspan></text>
          </g>
        </g>
      </g>
      <g
         id="g1915"
         transform="translate(-19.703125,77.078125)">
        <g
           id="g902-59"
           transform="matrix(0.54130268,0,0,0.538076,-250.44151,460.63764)"
           style="stroke-width:1.85293">
          <g
             id="g9838-2"
             transform="translate(-256.95931,-18.232602)"
             style="stroke-width:1.85293">
            <rect
               style="fill:#ff7e29;fill-opacity:1;stroke:#943c00;stroke-width:18.5293;stroke-linecap:round;stroke-opacity:1"
               id="rect1257-2"
               width="150"
               height="212"
               x="874.20184"
               y="212.65988" />
            <text
               xml:space="preserve"
               id="text3760-8"
               style="font-style:normal;font-variant:normal;font-weight:normal;font-stretch:normal;font-size:133.333px;line-height:125%;font-family:'Comic Neue';-inkscape-font-specification:'Comic Neue';letter-spacing:0px;word-spacing:0px;white-space:pre;shape-inside:url(#rect1257-2);display:inline;fill:#000000;fill-opacity:1;stroke:none;stroke-width:1.85293px;stroke-linecap:butt;stroke-linejoin:miter;stroke-opacity:1"
               x="104.81744"
               y="0"
               transform="translate(36.78456,33.52061)"><tspan
                 x="874.20117"
                 y="333.67434"
                 id="tspan7069"><tspan
                   style="font-family:'Arial Black';-inkscape-font-specification:'Arial Black, ';text-align:justify"
                   id="tspan7067">4</tspan></tspan></text>
          </g>
          <g
             id="g9838-3-9"
             transform="translate(-97.957315,-18.232602)"
             style="stroke-width:1.85293">
            <rect
               style="fill:#ff7e29;fill-opacity:1;stroke:#943c00;stroke-width:18.5293;stroke-linecap:round;stroke-opacity:1"
               id="rect1257-6-7"
               width="150"
               height="212"
               x="874.20184"
               y="212.65988" />
            <text
               xml:space="preserve"
               id="text3760-7-3"
               style="font-style:normal;font-variant:normal;font-weight:normal;font-stretch:normal;font-size:133.333px;line-height:125%;font-family:'Comic Neue';-inkscape-font-specification:'Comic Neue';letter-spacing:0px;word-spacing:0px;white-space:pre;shape-inside:url(#rect1257-6-7);display:inline;fill:#000000;fill-opacity:1;stroke:none;stroke-width:1.85293px;stroke-linecap:butt;stroke-linejoin:miter;stroke-opacity:1"
               x="104.81744"
               y="0"
               transform="translate(36.78456,33.52061)"><tspan
                 x="874.20117"
                 y="333.67434"
                 id="tspan7073"><tspan
                   style="font-family:'Arial Black';-inkscape-font-specification:'Arial Black, ';text-align:justify"
                   id="tspan7071">5</tspan></tspan></text>
          </g>
        </g>
        <g
           id="g902-5-6"
           transform="matrix(0.54130268,0,0,0.538076,-53.145941,604.68193)"
           style="stroke-width:1.85293">
          <g
             id="g9838-35-1"
             transform="translate(-256.95931,-18.232602)"
             style="stroke-width:1.85293">
            <rect
               style="fill:#ff7e29;fill-opacity:1;stroke:#943c00;stroke-width:18.5293;stroke-linecap:round;stroke-opacity:1"
               id="rect1257-62-2"
               width="150"
               height="212"
               x="874.20184"
               y="212.65988" />
            <text
               xml:space="preserve"
               id="text3760-9-9"
               style="font-style:normal;font-variant:normal;font-weight:normal;font-stretch:normal;font-size:133.333px;line-height:125%;font-family:'Comic Neue';-inkscape-font-specification:'Comic Neue';letter-spacing:0px;word-spacing:0px;white-space:pre;shape-inside:url(#rect1257-62-2);display:inline;fill:#000000;fill-opacity:1;stroke:none;stroke-width:1.85293px;stroke-linecap:butt;stroke-linejoin:miter;stroke-opacity:1"
               x="104.81744"
               y="0"
               transform="translate(36.78456,33.52061)"><tspan
                 x="874.20117"
                 y="333.67434"
                 id="tspan7077"><tspan
                   style="font-family:'Arial Black';-inkscape-font-specification:'Arial Black, ';text-align:justify"
                   id="tspan7075">4</tspan></tspan></text>
          </g>
          <g
             id="g9838-3-1-3"
             transform="translate(-97.957315,-18.232602)"
             style="stroke-width:1.85293">
            <rect
               style="fill:#ff7e29;fill-opacity:1;stroke:#943c00;stroke-width:18.5293;stroke-linecap:round;stroke-opacity:1"
               id="rect1257-6-2-1"
               width="150"
               height="212"
               x="874.20184"
               y="212.65988" />
            <text
               xml:space="preserve"
               id="text3760-7-7-9"
               style="font-style:normal;font-variant:normal;font-weight:normal;font-stretch:normal;font-size:133.333px;line-height:125%;font-family:'Comic Neue';-inkscape-font-specification:'Comic Neue';letter-spacing:0px;word-spacing:0px;white-space:pre;shape-inside:url(#rect1257-6-2-1);display:inline;fill:#000000;fill-opacity:1;stroke:none;stroke-width:1.85293px;stroke-linecap:butt;stroke-linejoin:miter;stroke-opacity:1"
               x="104.81744"
               y="0"
               transform="translate(36.78456,33.52061)"><tspan
                 x="874.20117"
                 y="333.67434"
                 id="tspan7081"><tspan
                   style="font-family:'Arial Black';-inkscape-font-specification:'Arial Black, ';text-align:justify"
                   id="tspan7079">5</tspan></tspan></text>
          </g>
        </g>
        <g
           id="g902-0-4"
           transform="matrix(0.54130268,0,0,0.538076,-53.145941,460.63764)"
           style="stroke-width:1.85293">
          <g
             id="g9838-9-7"
             transform="translate(-256.95931,-18.232602)"
             style="stroke-width:1.85293">
            <rect
               style="fill:#ff7e29;fill-opacity:1;stroke:#943c00;stroke-width:18.5293;stroke-linecap:round;stroke-opacity:1"
               id="rect1257-3-8"
               width="150"
               height="212"
               x="874.20184"
               y="212.65988" />
            <text
               xml:space="preserve"
               id="text3760-6-4"
               style="font-style:normal;font-variant:normal;font-weight:normal;font-stretch:normal;font-size:133.333px;line-height:125%;font-family:'Comic Neue';-inkscape-font-specification:'Comic Neue';letter-spacing:0px;word-spacing:0px;white-space:pre;shape-inside:url(#rect1257-3-8);display:inline;fill:#000000;fill-opacity:1;stroke:none;stroke-width:1.85293px;stroke-linecap:butt;stroke-linejoin:miter;stroke-opacity:1"
               x="104.81744"
               y="0"
               transform="translate(36.78456,33.52061)"><tspan
                 x="874.20117"
                 y="333.67434"
                 id="tspan7085"><tspan
                   style="font-family:'Arial Black';-inkscape-font-specification:'Arial Black, ';text-align:justify"
                   id="tspan7083">4</tspan></tspan></text>
          </g>
          <g
             id="g9838-3-0-5"
             transform="translate(-97.957315,-18.232602)"
             style="stroke-width:1.85293">
            <rect
               style="fill:#ff7e29;fill-opacity:1;stroke:#943c00;stroke-width:18.5293;stroke-linecap:round;stroke-opacity:1"
               id="rect1257-6-6-0"
               width="150"
               height="212"
               x="874.20184"
               y="212.65988" />
            <text
               xml:space="preserve"
               id="text3760-7-2-3"
               style="font-style:normal;font-variant:normal;font-weight:normal;font-stretch:normal;font-size:133.333px;line-height:125%;font-family:'Comic Neue';-inkscape-font-specification:'Comic Neue';letter-spacing:0px;word-spacing:0px;white-space:pre;shape-inside:url(#rect1257-6-6-0);display:inline;fill:#000000;fill-opacity:1;stroke:none;stroke-width:1.85293px;stroke-linecap:butt;stroke-linejoin:miter;stroke-opacity:1"
               x="104.81744"
               y="0"
               transform="translate(36.78456,33.52061)"><tspan
                 x="874.20117"
                 y="333.67434"
                 id="tspan7089"><tspan
                   style="font-family:'Arial Black';-inkscape-font-specification:'Arial Black, ';text-align:justify"
                   id="tspan7087">5</tspan></tspan></text>
          </g>
        </g>
        <g
           id="g902-6-6"
           transform="matrix(0.54130268,0,0,0.538076,-250.44151,604.68193)"
           style="stroke-width:1.85293">
          <g
             id="g9838-1-1"
             transform="translate(-256.95931,-18.232602)"
             style="stroke-width:1.85293">
            <rect
               style="fill:#ff7e29;fill-opacity:1;stroke:#943c00;stroke-width:18.5293;stroke-linecap:round;stroke-opacity:1"
               id="rect1257-8-0"
               width="150"
               height="212"
               x="874.20184"
               y="212.65988" />
            <text
               xml:space="preserve"
               id="text3760-79-6"
               style="font-style:normal;font-variant:normal;font-weight:normal;font-stretch:normal;font-size:133.333px;line-height:125%;font-family:'Comic Neue';-inkscape-font-specification:'Comic Neue';letter-spacing:0px;word-spacing:0px;white-space:pre;shape-inside:url(#rect1257-8-0);display:inline;fill:#000000;fill-opacity:1;stroke:none;stroke-width:1.85293px;stroke-linecap:butt;stroke-linejoin:miter;stroke-opacity:1"
               x="104.81744"
               y="0"
               transform="translate(36.78456,33.52061)"><tspan
                 x="874.20117"
                 y="333.67434"
                 id="tspan7093"><tspan
                   style="font-family:'Arial Black';-inkscape-font-specification:'Arial Black, ';text-align:justify"
                   id="tspan7091">4</tspan></tspan></text>
          </g>
          <g
             id="g9838-3-2-3"
             transform="translate(-97.957315,-18.232602)"
             style="stroke-width:1.85293">
            <rect
               style="fill:#ff7e29;fill-opacity:1;stroke:#943c00;stroke-width:18.5293;stroke-linecap:round;stroke-opacity:1"
               id="rect1257-6-0-2"
               width="150"
               height="212"
               x="874.20184"
               y="212.65988" />
            <text
               xml:space="preserve"
               id="text3760-7-23-0"
               style="font-style:normal;font-variant:normal;font-weight:normal;font-stretch:normal;font-size:133.333px;line-height:125%;font-family:'Comic Neue';-inkscape-font-specification:'Comic Neue';letter-spacing:0px;word-spacing:0px;white-space:pre;shape-inside:url(#rect1257-6-0-2);display:inline;fill:#000000;fill-opacity:1;stroke:none;stroke-width:1.85293px;stroke-linecap:butt;stroke-linejoin:miter;stroke-opacity:1"
               x="104.81744"
               y="0"
               transform="translate(36.78456,33.52061)"><tspan
                 x="874.20117"
                 y="333.67434"
                 id="tspan7097"><tspan
                   style="font-family:'Arial Black';-inkscape-font-specification:'Arial Black, ';text-align:justify"
                   id="tspan7095">5</tspan></tspan></text>
          </g>
        </g>
      </g>
    </g>
    <g
       id="g13521"
       transform="translate(1253.4852,-486.05175)">
      <g
         id="g13284">
        <path
           id="rect1257-2-3-2-6-4"
           style="fill:#ff7e29;stroke:#943c00;stroke-width:4.9;stroke-linecap:round;stroke-linejoin:round;stroke-dasharray:none"
           d="m 816.10103,602.16525 36.78649,35.47511 v 94.00904 l -36.78649,-35.47511 z"
           sodipodi:nodetypes="ccccc" />
        <path
           id="rect1257-2-3-2-6-4-1"
           style="fill:#ff7e29;stroke:#943c00;stroke-width:4.9;stroke-linecap:round;stroke-linejoin:round;stroke-dasharray:none"
           d="m 836.10103,602.16525 36.78649,35.47511 v 94.00904 l -36.78649,-35.47511 z"
           sodipodi:nodetypes="ccccc" />
        <path
           id="rect1257-2-3-2-6-2"
           style="fill:#ff7e29;stroke:#943c00;stroke-width:4.9;stroke-linecap:round;stroke-linejoin:round;stroke-dasharray:none"
           d="m 836.10103,602.16525 44.96126,-35.47511 v 94.00904 l -44.96126,35.47511 z"
           sodipodi:nodetypes="ccccc" />
        <path
           id="rect1257-2-3-2-6"
           style="fill:#ff7e29;stroke:#943c00;stroke-width:4.9;stroke-linecap:round;stroke-linejoin:round;stroke-dasharray:none"
           d="m 816.10103,602.16525 44.96126,-35.47511 v 94.00904 l -44.96126,35.47511 z"
           sodipodi:nodetypes="ccccc" />
        <text
           xml:space="preserve"
           id="text3760-3-0-7-5"
           style="font-style:normal;font-variant:normal;font-weight:normal;font-stretch:normal;font-size:66.6667px;line-height:125%;font-family:'Comic Neue';-inkscape-font-specification:'Comic Neue';letter-spacing:0px;word-spacing:0px;white-space:pre;shape-inside:url(#rect1257-2-32-8-7);display:inline;fill:#000000;fill-opacity:1;stroke:none;stroke-width:1px;stroke-linecap:butt;stroke-linejoin:miter;stroke-opacity:1"
           x="62.890465"
           y="0"
           transform="matrix(1,-0.83909963,0,1,816.26692,674.72182)"><tspan
             x="0"
             y="0"
             id="tspan7101"><tspan
               style="font-family:'Arial black';-inkscape-font-specification:'Arial black, '"
               id="tspan7099">1</tspan></tspan></text>
      </g>
      <g
         id="g13284-9"
         transform="translate(134.25534)">
        <path
           id="rect1257-2-3-2-6-4-6"
           style="fill:#ff7e29;stroke:#943c00;stroke-width:4.9;stroke-linecap:round;stroke-linejoin:round;stroke-dasharray:none"
           d="m 816.10103,602.16525 36.78649,35.47511 v 94.00904 l -36.78649,-35.47511 z"
           sodipodi:nodetypes="ccccc" />
        <path
           id="rect1257-2-3-2-6-4-1-2"
           style="fill:#ff7e29;stroke:#943c00;stroke-width:4.9;stroke-linecap:round;stroke-linejoin:round;stroke-dasharray:none"
           d="m 836.10103,602.16525 36.78649,35.47511 v 94.00904 l -36.78649,-35.47511 z"
           sodipodi:nodetypes="ccccc" />
        <path
           id="rect1257-2-3-2-6-2-1"
           style="fill:#ff7e29;stroke:#943c00;stroke-width:4.9;stroke-linecap:round;stroke-linejoin:round;stroke-dasharray:none"
           d="m 836.10103,602.16525 44.96126,-35.47511 v 94.00904 l -44.96126,35.47511 z"
           sodipodi:nodetypes="ccccc" />
        <path
           id="rect1257-2-3-2-6-7"
           style="fill:#ff7e29;stroke:#943c00;stroke-width:4.9;stroke-linecap:round;stroke-linejoin:round;stroke-dasharray:none"
           d="m 816.10103,602.16525 44.96126,-35.47511 v 94.00904 l -44.96126,35.47511 z"
           sodipodi:nodetypes="ccccc" />
        <text
           xml:space="preserve"
           id="text3760-3-0-7-5-8"
           style="font-style:normal;font-variant:normal;font-weight:normal;font-stretch:normal;font-size:66.6667px;line-height:125%;font-family:'Comic Neue';-inkscape-font-specification:'Comic Neue';letter-spacing:0px;word-spacing:0px;white-space:pre;shape-inside:url(#rect1257-2-32-8-7);display:inline;fill:#000000;fill-opacity:1;stroke:none;stroke-width:1px;stroke-linecap:butt;stroke-linejoin:miter;stroke-opacity:1"
           x="62.890465"
           y="0"
           transform="matrix(1,-0.83909963,0,1,816.26692,674.72182)"><tspan
             x="0"
             y="0"
             id="tspan7105"><tspan
               style="font-family:'Arial black';-inkscape-font-specification:'Arial black, '"
               id="tspan7103">1</tspan></tspan></text>
      </g>
      <g
         id="g13284-5"
         transform="translate(0,185.89915)">
        <path
           id="rect1257-2-3-2-6-4-7"
           style="fill:#ff7e29;stroke:#943c00;stroke-width:4.9;stroke-linecap:round;stroke-linejoin:round;stroke-dasharray:none"
           d="m 816.10103,602.16525 36.78649,35.47511 v 94.00904 l -36.78649,-35.47511 z"
           sodipodi:nodetypes="ccccc" />
        <path
           id="rect1257-2-3-2-6-4-1-4"
           style="fill:#ff7e29;stroke:#943c00;stroke-width:4.9;stroke-linecap:round;stroke-linejoin:round;stroke-dasharray:none"
           d="m 836.10103,602.16525 36.78649,35.47511 v 94.00904 l -36.78649,-35.47511 z"
           sodipodi:nodetypes="ccccc" />
        <path
           id="rect1257-2-3-2-6-2-18"
           style="fill:#ff7e29;stroke:#943c00;stroke-width:4.9;stroke-linecap:round;stroke-linejoin:round;stroke-dasharray:none"
           d="m 836.10103,602.16525 44.96126,-35.47511 v 94.00904 l -44.96126,35.47511 z"
           sodipodi:nodetypes="ccccc" />
        <path
           id="rect1257-2-3-2-6-5"
           style="fill:#ff7e29;stroke:#943c00;stroke-width:4.9;stroke-linecap:round;stroke-linejoin:round;stroke-dasharray:none"
           d="m 816.10103,602.16525 44.96126,-35.47511 v 94.00904 l -44.96126,35.47511 z"
           sodipodi:nodetypes="ccccc" />
        <text
           xml:space="preserve"
           id="text3760-3-0-7-5-9"
           style="font-style:normal;font-variant:normal;font-weight:normal;font-stretch:normal;font-size:66.6667px;line-height:125%;font-family:'Comic Neue';-inkscape-font-specification:'Comic Neue';letter-spacing:0px;word-spacing:0px;white-space:pre;shape-inside:url(#rect1257-2-32-8-7);display:inline;fill:#000000;fill-opacity:1;stroke:none;stroke-width:1px;stroke-linecap:butt;stroke-linejoin:miter;stroke-opacity:1"
           x="62.890465"
           y="0"
           transform="matrix(1,-0.83909963,0,1,816.26692,674.72182)"><tspan
             x="0"
             y="0"
             id="tspan7109"><tspan
               style="font-family:'Arial black';-inkscape-font-specification:'Arial black, '"
               id="tspan7107">1</tspan></tspan></text>
      </g>
      <g
         id="g13284-9-7"
         transform="translate(134.25534,185.89915)">
        <path
           id="rect1257-2-3-2-6-4-6-5"
           style="fill:#ff7e29;stroke:#943c00;stroke-width:4.9;stroke-linecap:round;stroke-linejoin:round;stroke-dasharray:none"
           d="m 816.10103,602.16525 36.78649,35.47511 v 94.00904 l -36.78649,-35.47511 z"
           sodipodi:nodetypes="ccccc" />
        <path
           id="rect1257-2-3-2-6-4-1-2-3"
           style="fill:#ff7e29;stroke:#943c00;stroke-width:4.9;stroke-linecap:round;stroke-linejoin:round;stroke-dasharray:none"
           d="m 836.10103,602.16525 36.78649,35.47511 v 94.00904 l -36.78649,-35.47511 z"
           sodipodi:nodetypes="ccccc" />
        <path
           id="rect1257-2-3-2-6-2-1-8"
           style="fill:#ff7e29;stroke:#943c00;stroke-width:4.9;stroke-linecap:round;stroke-linejoin:round;stroke-dasharray:none"
           d="m 836.10103,602.16525 44.96126,-35.47511 v 94.00904 l -44.96126,35.47511 z"
           sodipodi:nodetypes="ccccc" />
        <path
           id="rect1257-2-3-2-6-7-8"
           style="fill:#ff7e29;stroke:#943c00;stroke-width:4.9;stroke-linecap:round;stroke-linejoin:round;stroke-dasharray:none"
           d="m 816.10103,602.16525 44.96126,-35.47511 v 94.00904 l -44.96126,35.47511 z"
           sodipodi:nodetypes="ccccc" />
        <text
           xml:space="preserve"
           id="text3760-3-0-7-5-8-3"
           style="font-style:normal;font-variant:normal;font-weight:normal;font-stretch:normal;font-size:66.6667px;line-height:125%;font-family:'Comic Neue';-inkscape-font-specification:'Comic Neue';letter-spacing:0px;word-spacing:0px;white-space:pre;shape-inside:url(#rect1257-2-32-8-7);display:inline;fill:#000000;fill-opacity:1;stroke:none;stroke-width:1px;stroke-linecap:butt;stroke-linejoin:miter;stroke-opacity:1"
           x="62.890465"
           y="0"
           transform="matrix(1,-0.83909963,0,1,816.26692,674.72182)"><tspan
             x="0"
             y="0"
             id="tspan7113"><tspan
               style="font-family:'Arial black';-inkscape-font-specification:'Arial black, '"
               id="tspan7111">1</tspan></tspan></text>
      </g>
    </g>
    <g
       id="g15142"
       transform="translate(2504.1768,-946.72359)">
      <g
         id="g14711"
         transform="matrix(0.6009768,0,0,0.59899621,-249.60414,759.95864)"
         style="stroke-width:1.66671">
        <path
           id="rect1257-2-3-2-3"
           style="fill:#ff7e29;stroke:#943c00;stroke-width:6.66683;stroke-linecap:round;stroke-dasharray:none"
           d="m 683.66028,517.33175 h 150 l -120,192 H 571.49329 c -7.47799,0 -7.81742,-5.22861 -7.83234,-9.16708 -5.8e-4,-0.15275 1.28671,-8.54957 1.28671,-8.69807"
           sodipodi:nodetypes="cccssc" />
        <path
           id="rect1257-2-3-2-3-8"
           style="fill:#ff7e29;stroke:#943c00;stroke-width:6.66683;stroke-linecap:round;stroke-dasharray:none"
           d="m 687.57706,511.2041 h 143.99997 l -119.99997,192 H 575.41007 c -4.98654,0 -5.40511,-1.92959 -6.3912,-4.82431 l 2.57525,-4.21305"
           sodipodi:nodetypes="cccscc" />
        <path
           id="rect1257-2-3-2-3-3-6"
           style="fill:#ff7e29;stroke:#943c00;stroke-width:6.66683;stroke-linecap:round;stroke-dasharray:none"
           d="m 692.68952,511.61248 138.88751,-8.40838 -119.99997,192 H 575.12613 c -4.42594,0 -4.26627,-2.21396 -5.72192,2.21682 -0.45281,1.37832 -0.41662,-0.26525 -0.41662,-0.26525 L 684.93991,516.02862 c 2.9064,-4.19426 3.31563,-4.15882 7.74961,-4.41614 z"
           sodipodi:nodetypes="ccczsccc" />
        <path
           id="rect1257-2-3-2-3-3"
           style="fill:#ff7e29;stroke:#943c00;stroke-width:6.66683;stroke-linecap:round;stroke-dasharray:none"
           d="m 688.77274,505.74013 140.88754,-8.40838 -120,192 H 570.24122 c -4.42594,0 -6.58094,1.8229 -6.58094,8.70508 0,1.45079 1.41053,-6.75351 1.41053,-6.75351 L 681.02313,510.15627 c 2.9064,-4.19426 3.31563,-4.15882 7.74961,-4.41614 z"
           sodipodi:nodetypes="ccczsccc" />
        <text
           xml:space="preserve"
           id="text2963-4"
           style="font-style:normal;font-variant:normal;font-weight:normal;font-stretch:normal;font-size:133.333px;line-height:125%;font-family:'Comic Neue';-inkscape-font-specification:'Comic Neue';letter-spacing:0px;word-spacing:0px;white-space:pre;shape-inside:url(#rect2965-0);display:inline;fill:#000000;fill-opacity:1;stroke:none;stroke-width:1.66671px;stroke-linecap:butt;stroke-linejoin:miter;stroke-opacity:1"
           transform="matrix(1,0,-0.57735027,1,924.5958,-45.743872)"><tspan
             x="93.359375"
             y="693.52981"
             id="tspan7117"><tspan
               style="font-family:'Arial Black';-inkscape-font-specification:'Arial Black, '"
               id="tspan7115">1</tspan></tspan></text>
      </g>
      <g
         id="g14711-8"
         transform="matrix(0.6009768,0,0,0.59899621,-76.035753,759.95864)"
         style="stroke-width:1.66671">
        <path
           id="rect1257-2-3-2-3-89"
           style="fill:#ff7e29;stroke:#943c00;stroke-width:6.66683;stroke-linecap:round;stroke-dasharray:none"
           d="m 683.66028,517.33175 h 150 l -120,192 H 571.49329 c -7.47799,0 -7.81742,-5.22861 -7.83234,-9.16708 -5.8e-4,-0.15275 1.28671,-8.54957 1.28671,-8.69807"
           sodipodi:nodetypes="cccssc" />
        <path
           id="rect1257-2-3-2-3-8-7"
           style="fill:#ff7e29;stroke:#943c00;stroke-width:6.66683;stroke-linecap:round;stroke-dasharray:none"
           d="m 687.57706,511.2041 h 143.99997 l -119.99997,192 H 575.41007 c -4.98654,0 -5.40511,-1.92959 -6.3912,-4.82431 l 2.57525,-4.21305"
           sodipodi:nodetypes="cccscc" />
        <path
           id="rect1257-2-3-2-3-3-6-7"
           style="fill:#ff7e29;stroke:#943c00;stroke-width:6.66683;stroke-linecap:round;stroke-dasharray:none"
           d="m 692.68952,511.61248 138.88751,-8.40838 -119.99997,192 H 575.12613 c -4.42594,0 -4.26627,-2.21396 -5.72192,2.21682 -0.45281,1.37832 -0.41662,-0.26525 -0.41662,-0.26525 L 684.93991,516.02862 c 2.9064,-4.19426 3.31563,-4.15882 7.74961,-4.41614 z"
           sodipodi:nodetypes="ccczsccc" />
        <path
           id="rect1257-2-3-2-3-3-64"
           style="fill:#ff7e29;stroke:#943c00;stroke-width:6.66683;stroke-linecap:round;stroke-dasharray:none"
           d="m 688.77274,505.74013 140.88754,-8.40838 -120,192 H 570.24122 c -4.42594,0 -6.58094,1.8229 -6.58094,8.70508 0,1.45079 1.41053,-6.75351 1.41053,-6.75351 L 681.02313,510.15627 c 2.9064,-4.19426 3.31563,-4.15882 7.74961,-4.41614 z"
           sodipodi:nodetypes="ccczsccc" />
        <text
           xml:space="preserve"
           id="text2963-4-3"
           style="font-style:normal;font-variant:normal;font-weight:normal;font-stretch:normal;font-size:133.333px;line-height:125%;font-family:'Comic Neue';-inkscape-font-specification:'Comic Neue';letter-spacing:0px;word-spacing:0px;white-space:pre;shape-inside:url(#rect2965-0-8);display:inline;fill:#000000;fill-opacity:1;stroke:none;stroke-width:1.66671px;stroke-linecap:butt;stroke-linejoin:miter;stroke-opacity:1"
           transform="matrix(1,0,-0.57735027,1,924.5958,-45.743872)"><tspan
             x="93.359375"
             y="693.52981"
             id="tspan7121"><tspan
               style="font-family:'Arial Black';-inkscape-font-specification:'Arial Black, '"
               id="tspan7119">1</tspan></tspan></text>
      </g>
      <g
         id="g14711-0"
         transform="matrix(0.6009768,0,0,0.59899621,-249.60414,923.06383)"
         style="stroke-width:1.66671">
        <path
           id="rect1257-2-3-2-3-9"
           style="fill:#ff7e29;stroke:#943c00;stroke-width:6.66683;stroke-linecap:round;stroke-dasharray:none"
           d="m 683.66028,517.33175 h 150 l -120,192 H 571.49329 c -7.47799,0 -7.81742,-5.22861 -7.83234,-9.16708 -5.8e-4,-0.15275 1.28671,-8.54957 1.28671,-8.69807"
           sodipodi:nodetypes="cccssc" />
        <path
           id="rect1257-2-3-2-3-8-2"
           style="fill:#ff7e29;stroke:#943c00;stroke-width:6.66683;stroke-linecap:round;stroke-dasharray:none"
           d="m 687.57706,511.2041 h 143.99997 l -119.99997,192 H 575.41007 c -4.98654,0 -5.40511,-1.92959 -6.3912,-4.82431 l 2.57525,-4.21305"
           sodipodi:nodetypes="cccscc" />
        <path
           id="rect1257-2-3-2-3-3-6-5"
           style="fill:#ff7e29;stroke:#943c00;stroke-width:6.66683;stroke-linecap:round;stroke-dasharray:none"
           d="m 692.68952,511.61248 138.88751,-8.40838 -119.99997,192 H 575.12613 c -4.42594,0 -4.26627,-2.21396 -5.72192,2.21682 -0.45281,1.37832 -0.41662,-0.26525 -0.41662,-0.26525 L 684.93991,516.02862 c 2.9064,-4.19426 3.31563,-4.15882 7.74961,-4.41614 z"
           sodipodi:nodetypes="ccczsccc" />
        <path
           id="rect1257-2-3-2-3-3-4"
           style="fill:#ff7e29;stroke:#943c00;stroke-width:6.66683;stroke-linecap:round;stroke-dasharray:none"
           d="m 688.77274,505.74013 140.88754,-8.40838 -120,192 H 570.24122 c -4.42594,0 -6.58094,1.8229 -6.58094,8.70508 0,1.45079 1.41053,-6.75351 1.41053,-6.75351 L 681.02313,510.15627 c 2.9064,-4.19426 3.31563,-4.15882 7.74961,-4.41614 z"
           sodipodi:nodetypes="ccczsccc" />
        <text
           xml:space="preserve"
           id="text2963-4-0"
           style="font-style:normal;font-variant:normal;font-weight:normal;font-stretch:normal;font-size:133.333px;line-height:125%;font-family:'Comic Neue';-inkscape-font-specification:'Comic Neue';letter-spacing:0px;word-spacing:0px;white-space:pre;shape-inside:url(#rect2965-0-0);display:inline;fill:#000000;fill-opacity:1;stroke:none;stroke-width:1.66671px;stroke-linecap:butt;stroke-linejoin:miter;stroke-opacity:1"
           transform="matrix(1,0,-0.57735027,1,924.5958,-45.743872)"><tspan
             x="93.359375"
             y="693.52981"
             id="tspan7125"><tspan
               style="font-family:'Arial Black';-inkscape-font-specification:'Arial Black, '"
               id="tspan7123">1</tspan></tspan></text>
      </g>
      <g
         id="g14711-8-5"
         transform="matrix(0.6009768,0,0,0.59899621,-76.035753,923.06383)"
         style="stroke-width:1.66671">
        <path
           id="rect1257-2-3-2-3-89-9"
           style="fill:#ff7e29;stroke:#943c00;stroke-width:6.66683;stroke-linecap:round;stroke-dasharray:none"
           d="m 683.66028,517.33175 h 150 l -120,192 H 571.49329 c -7.47799,0 -7.81742,-5.22861 -7.83234,-9.16708 -5.8e-4,-0.15275 1.28671,-8.54957 1.28671,-8.69807"
           sodipodi:nodetypes="cccssc" />
        <path
           id="rect1257-2-3-2-3-8-7-4"
           style="fill:#ff7e29;stroke:#943c00;stroke-width:6.66683;stroke-linecap:round;stroke-dasharray:none"
           d="m 687.57706,511.2041 h 143.99997 l -119.99997,192 H 575.41007 c -4.98654,0 -5.40511,-1.92959 -6.3912,-4.82431 l 2.57525,-4.21305"
           sodipodi:nodetypes="cccscc" />
        <path
           id="rect1257-2-3-2-3-3-6-7-6"
           style="fill:#ff7e29;stroke:#943c00;stroke-width:6.66683;stroke-linecap:round;stroke-dasharray:none"
           d="m 692.68952,511.61248 138.88751,-8.40838 -119.99997,192 H 575.12613 c -4.42594,0 -4.26627,-2.21396 -5.72192,2.21682 -0.45281,1.37832 -0.41662,-0.26525 -0.41662,-0.26525 L 684.93991,516.02862 c 2.9064,-4.19426 3.31563,-4.15882 7.74961,-4.41614 z"
           sodipodi:nodetypes="ccczsccc" />
        <path
           id="rect1257-2-3-2-3-3-64-9"
           style="fill:#ff7e29;stroke:#943c00;stroke-width:6.66683;stroke-linecap:round;stroke-dasharray:none"
           d="m 688.77274,505.74013 140.88754,-8.40838 -120,192 H 570.24122 c -4.42594,0 -6.58094,1.8229 -6.58094,8.70508 0,1.45079 1.41053,-6.75351 1.41053,-6.75351 L 681.02313,510.15627 c 2.9064,-4.19426 3.31563,-4.15882 7.74961,-4.41614 z"
           sodipodi:nodetypes="ccczsccc" />
        <text
           xml:space="preserve"
           id="text2963-4-3-2"
           style="font-style:normal;font-variant:normal;font-weight:normal;font-stretch:normal;font-size:133.333px;line-height:125%;font-family:'Comic Neue';-inkscape-font-specification:'Comic Neue';letter-spacing:0px;word-spacing:0px;white-space:pre;shape-inside:url(#rect2965-0-8-3);display:inline;fill:#000000;fill-opacity:1;stroke:none;stroke-width:1.66671px;stroke-linecap:butt;stroke-linejoin:miter;stroke-opacity:1"
           transform="matrix(1,0,-0.57735027,1,924.5958,-45.743872)"><tspan
             x="93.359375"
             y="693.52981"
             id="tspan7129"><tspan
               style="font-family:'Arial Black';-inkscape-font-specification:'Arial Black, '"
               id="tspan7127">1</tspan></tspan></text>
      </g>
    </g>
    <g
       id="g3343-9-7"
       transform="translate(1069.0109,247.88374)">
      <ellipse
         style="fill:#ffffa0;fill-opacity:1;stroke:#000000;stroke-width:9.99996;stroke-linecap:square;stroke-linejoin:round;paint-order:stroke fill markers"
         id="path1982-1-0"
         ry="45.000008"
         rx="45"
         cy="202.11627"
         cx="98.594635" />
      <text
         xml:space="preserve"
         id="text3760-3-0-7-8-3-27-9"
         style="font-style:normal;font-variant:normal;font-weight:normal;font-stretch:normal;font-size:66.6667px;line-height:125%;font-family:'Comic Neue';-inkscape-font-specification:'Comic Neue';letter-spacing:0px;word-spacing:0px;white-space:pre;shape-inside:url(#rect1257-2-32-8-4-5-2);display:inline;fill:#000000;fill-opacity:1;stroke:none;stroke-width:1px;stroke-linecap:butt;stroke-linejoin:miter;stroke-opacity:1"
         x="62.890465"
         y="0"
         transform="translate(79.48655,226.38387)"><tspan
           x="0"
           y="0"
           id="tspan7133"><tspan
             style="font-family:'Arial black';-inkscape-font-specification:'Arial black, '"
             id="tspan7131">2</tspan></tspan></text>
    </g>
    <g
       id="g3343-9-7-3"
       transform="translate(1687.3718,410.68458)">
      <ellipse
         style="fill:#ffffa0;fill-opacity:1;stroke:#000000;stroke-width:9.99996;stroke-linecap:square;stroke-linejoin:round;paint-order:stroke fill markers"
         id="path1982-1-0-6"
         ry="45.000008"
         rx="45"
         cy="39.31543"
         cx="204.31482" />
      <text
         xml:space="preserve"
         id="text3760-3-0-7-8-3-27-9-0"
         style="font-style:normal;font-variant:normal;font-weight:normal;font-stretch:normal;font-size:66.6667px;line-height:125%;font-family:'Comic Neue';-inkscape-font-specification:'Comic Neue';letter-spacing:0px;word-spacing:0px;white-space:pre;shape-inside:url(#rect1257-2-32-8-4-5-2);display:inline;fill:#000000;fill-opacity:1;stroke:none;stroke-width:1px;stroke-linecap:butt;stroke-linejoin:miter;stroke-opacity:1"
         x="62.890465"
         y="0"
         transform="translate(185.20674,63.583021)"><tspan
           x="0"
           y="0"
           id="tspan7137"><tspan
             style="font-family:'Arial black';-inkscape-font-specification:'Arial black, '"
             id="tspan7135">3</tspan></tspan></text>
    </g>
    <g
       id="g3343-9-7-3-6"
       transform="translate(2226.9697,410.68458)">
      <ellipse
         style="fill:#ffffa0;fill-opacity:1;stroke:#000000;stroke-width:9.99996;stroke-linecap:square;stroke-linejoin:round;paint-order:stroke fill markers"
         id="path1982-1-0-6-2"
         ry="45.000008"
         rx="45"
         cy="39.31543"
         cx="204.31482" />
      <text
         xml:space="preserve"
         id="text3760-3-0-7-8-3-27-9-0-6"
         style="font-style:normal;font-variant:normal;font-weight:normal;font-stretch:normal;font-size:66.6667px;line-height:125%;font-family:'Comic Neue';-inkscape-font-specification:'Comic Neue';letter-spacing:0px;word-spacing:0px;white-space:pre;shape-inside:url(#rect1257-2-32-8-4-5-2);display:inline;fill:#000000;fill-opacity:1;stroke:none;stroke-width:1px;stroke-linecap:butt;stroke-linejoin:miter;stroke-opacity:1"
         x="62.890465"
         y="0"
         transform="translate(185.20674,63.583021)"><tspan
           x="0"
           y="0"
           id="tspan7141"><tspan
             style="font-family:'Arial black';-inkscape-font-specification:'Arial black, '"
             id="tspan7139">4</tspan></tspan></text>
    </g>
    <g
       id="g3343-9-7-3-1"
       transform="translate(258.36883,410.68458)">
      <ellipse
         style="fill:#ffffa0;fill-opacity:1;stroke:#000000;stroke-width:9.99996;stroke-linecap:square;stroke-linejoin:round;paint-order:stroke fill markers"
         id="path1982-1-0-6-8"
         ry="45.000008"
         rx="45"
         cy="39.31543"
         cx="204.31482" />
      <text
         xml:space="preserve"
         id="text3760-3-0-7-8-3-27-9-0-7"
         style="font-style:normal;font-variant:normal;font-weight:normal;font-stretch:normal;font-size:66.6667px;line-height:125%;font-family:'Comic Neue';-inkscape-font-specification:'Comic Neue';letter-spacing:0px;word-spacing:0px;white-space:pre;shape-inside:url(#rect1257-2-32-8-4-5-2);display:inline;fill:#000000;fill-opacity:1;stroke:none;stroke-width:1px;stroke-linecap:butt;stroke-linejoin:miter;stroke-opacity:1"
         x="62.890465"
         y="0"
         transform="translate(185.20674,63.583021)"><tspan
           x="0"
           y="0"
           id="tspan7145"><tspan
             style="font-family:'Arial black';-inkscape-font-specification:'Arial black, '"
             id="tspan7143">1</tspan></tspan></text>
    </g>
  </g>
</svg>
